{
  "problem": {
    "name": "sir-sed-v2-AG_17",
    "multi_file": true,
    "program": "source/manifest.txt",
    "executable_name": "sed",
    "positive_tests": 359,
    "negative_tests": 1,
    "compiler": {
      "executable": "sed",
      "command": "./compile.sh __EXE_NAME__ &> /dev/null"
    },
    "fix": {
      "types": ["wrap", "replace"],
      "line": 661,
      "statements": [246]
    }
  },
  "test_command": "./test.sh __EXE_NAME__ __TEST_NAME__ &> /dev/null"
}
