{
  "problem": {
    "name": "ct-python-a93342b",
    "multi_file": true,
    "program": "preprocessed/manifest.txt",
    "executable_name": "python",
    "positive_tests": 345,
    "negative_tests": 1,
    "compiler": {
      "executable": "python",
      "command": "./compile.sh __EXE_NAME__ &> /dev/null"
    }
  },
  "coverage": {"unique": true},
  "test_command": "./test.sh __EXE_NAME__ __TEST_NAME__ &> /dev/null"
}
