/experiment/source/Modules/_ctypes/_ctypes_test.c: In function '_testfunc_large_struct_update_value':
/experiment/source/Modules/_ctypes/_ctypes_test.c:53:42: warning: parameter 'in' set but not used [-Wunused-but-set-parameter]
 _testfunc_large_struct_update_value(Test in)
                                          ^
