{
  "problem": {
    "name": "sir-gzip-v1-KL_2",
    "multi_file": true,
    "program": "source/manifest.txt",
    "executable_name": "gzip",
    "positive_tests": 178,
    "negative_tests": 1,
    "compiler": {
      "executable": "gzip",
      "command": "./compile.sh __EXE_NAME__ &> /dev/null"
    },
    "fix": {
      "types": ["replace", "modify_if_guard", "flip_comparison_op"],
      "line": 2559,
      "statements": [1094]
    }
  },
  "test_command": "./test.sh __EXE_NAME__ __TEST_NAME__ &> /dev/null"
}
