Could not find platform dependent libraries <exec_prefix>
Consider setting $PYTHONHOME to <prefix>[:<exec_prefix>]
Could not find platform dependent libraries <exec_prefix>
Consider setting $PYTHONHOME to <prefix>[:<exec_prefix>]
/experiment/source/Modules/_ctypes/libffi/src/x86/ffi64.c: In function 'classify_argument':
/experiment/source/Modules/_ctypes/libffi/src/x86/ffi64.c:224:16: warning: comparison between signed and unsigned integer expressions [-Wsign-compare]
  for (i = 0; i < words; i++)
                ^
/experiment/source/Modules/_ctypes/libffi/src/x86/ffi64.c:245:20: warning: comparison between signed and unsigned integer expressions [-Wsign-compare]
      for (i = 0; i < num; i++)
                    ^
/experiment/source/Modules/_ctypes/libffi/src/x86/ffi64.c:264:20: warning: comparison between signed and unsigned integer expressions [-Wsign-compare]
      for (i = 1; i < words; i++)
                    ^
/experiment/source/Modules/_ctypes/libffi/src/x86/ffi64.c:270:16: warning: comparison between signed and unsigned integer expressions [-Wsign-compare]
  for (i = 0; i < words; i++)
                ^
/experiment/source/Modules/_ctypes/libffi/src/x86/ffi64.c: In function 'examine_argument':
/experiment/source/Modules/_ctypes/libffi/src/x86/ffi64.c:323:17: warning: comparison between signed and unsigned integer expressions [-Wsign-compare]
   for (i = 0; i < n; ++i)
                 ^
/experiment/source/Modules/_ctypes/libffi/src/x86/ffi64.c: In function 'ffi_call':
/experiment/source/Modules/_ctypes/libffi/src/x86/ffi64.c:484:18: warning: comparison between signed and unsigned integer expressions [-Wsign-compare]
    for (j = 0; j < n; j++, a += 8, size -= 8)
                  ^
/experiment/source/Modules/_ctypes/libffi/src/x86/ffi64.c: In function 'ffi_closure_unix64_inner':
/experiment/source/Modules/_ctypes/libffi/src/x86/ffi64.c:659:18: warning: comparison between signed and unsigned integer expressions [-Wsign-compare]
    for (j = 0; j < n; j++, a += 8)
                  ^
