/experiment/source/ext/json/json.c: In function 'json_escape_string':
/experiment/source/ext/json/json.c:422:6: warning: unknown conversion type character 'k' in format [-Wformat=]
      int l = spprintf(&tmp, 0, "%.*k", (int) EG(precision), d);
      ^
/experiment/source/ext/json/json.c:422:6: warning: too many arguments for format [-Wformat-extra-args]
/experiment/source/ext/json/json.c: In function 'php_json_encode':
/experiment/source/ext/json/json.c:630:6: warning: unknown conversion type character 'k' in format [-Wformat=]
      len = spprintf(&d, 0, "%.*k", (int) EG(precision), dbl);
      ^
/experiment/source/ext/json/json.c:630:6: warning: too many arguments for format [-Wformat-extra-args]
/experiment/source/ext/pdo/pdo_stmt.c: In function 'really_register_bound_param':
/experiment/source/ext/pdo/pdo_stmt.c:323:4: warning: conversion lacks type at end of format [-Wformat=]
    int len = spprintf(&p, 0, "%.*H", (int) EG(precision), Z_DVAL_P(param->parameter));
    ^
/experiment/source/ext/pdo/pdo_stmt.c:323:4: warning: too many arguments for format [-Wformat-extra-args]
/experiment/source/ext/phar/phar.c: In function 'phar_split_fname':
/experiment/source/ext/phar/phar.c:2280:11: warning: assignment discards 'const' qualifier from pointer target type [enabled by default]
     *arch = filename;
           ^
/experiment/source/ext/session/session.c: In function 'ps_srlzr_decode_php_serialize':
/experiment/source/ext/session/session.c:877:2: warning: passing argument 2 of 'php_var_unserialize' from incompatible pointer type [enabled by default]
  php_var_unserialize(&session_vars, &val, endptr, &var_hash TSRMLS_CC);
  ^
In file included from /experiment/source/ext/session/php_session.h:24:0,
                 from /experiment/source/ext/session/session.c:42:
/experiment/source/ext/standard/php_var.h:53:12: note: expected 'const unsigned char **' but argument is of type 'const char **'
 PHPAPI int php_var_unserialize(zval **rval, const unsigned char **p, const unsigned char *max, php_unserialize_data_t *var_hash TSRMLS_DC);
            ^
/experiment/source/ext/standard/file.c: In function 'zif_file':
/experiment/source/ext/standard/file.c:751:11: warning: assignment discards 'const' qualifier from pointer target type [enabled by default]
   if (!(p = php_stream_locate_eol(stream, target_buf, target_len TSRMLS_CC))) {
           ^
/experiment/source/ext/standard/string.c: In function 'php_explode':
/experiment/source/ext/standard/string.c:1018:5: warning: assignment discards 'const' qualifier from pointer target type [enabled by default]
  p2 = php_memnstr(Z_STRVAL_P(str), Z_STRVAL_P(delim), Z_STRLEN_P(delim), endp);
     ^
/experiment/source/ext/standard/string.c:1026:16: warning: assignment discards 'const' qualifier from pointer target type [enabled by default]
   } while ((p2 = php_memnstr(p1, Z_STRVAL_P(delim), Z_STRLEN_P(delim), endp)) != NULL &&
                ^
/experiment/source/ext/standard/string.c: In function 'php_explode_negative_limit':
/experiment/source/ext/standard/string.c:1045:5: warning: assignment discards 'const' qualifier from pointer target type [enabled by default]
  p2 = php_memnstr(Z_STRVAL_P(str), Z_STRVAL_P(delim), Z_STRLEN_P(delim), endp);
     ^
/experiment/source/ext/standard/string.c:1064:16: warning: assignment discards 'const' qualifier from pointer target type [enabled by default]
   } while ((p2 = php_memnstr(p1, Z_STRVAL_P(delim), Z_STRLEN_P(delim), endp)) != NULL);
                ^
/experiment/source/ext/standard/string.c: In function 'php_stristr':
/experiment/source/ext/standard/string.c:1616:2: warning: return discards 'const' qualifier from pointer target type [enabled by default]
  return php_memnstr(s, t, t_len, s + s_len);
  ^
/experiment/source/ext/standard/string.c: In function 'zif_strstr':
/experiment/source/ext/standard/string.c:1768:9: warning: assignment discards 'const' qualifier from pointer target type [enabled by default]
   found = php_memnstr(haystack, Z_STRVAL_P(needle), Z_STRLEN_P(needle), haystack + haystack_len);
         ^
/experiment/source/ext/standard/string.c:1775:9: warning: assignment discards 'const' qualifier from pointer target type [enabled by default]
   found = php_memnstr(haystack, needle_char, 1, haystack + haystack_len);
         ^
/experiment/source/ext/standard/string.c: In function 'zif_strpos':
/experiment/source/ext/standard/string.c:1820:9: warning: assignment discards 'const' qualifier from pointer target type [enabled by default]
   found = php_memnstr(haystack + offset,
         ^
/experiment/source/ext/standard/string.c:1830:9: warning: assignment discards 'const' qualifier from pointer target type [enabled by default]
   found = php_memnstr(haystack + offset,
         ^
/experiment/source/ext/standard/string.c: In function 'zif_stripos':
/experiment/source/ext/standard/string.c:1880:9: warning: assignment discards 'const' qualifier from pointer target type [enabled by default]
   found = php_memnstr(haystack_dup + offset, needle_dup, Z_STRLEN_P(needle), haystack_dup + haystack_len);
         ^
/experiment/source/ext/standard/string.c:1888:9: warning: assignment discards 'const' qualifier from pointer target type [enabled by default]
   found = php_memnstr(haystack_dup + offset,
         ^
/experiment/source/ext/standard/string.c: In function 'php_str_to_str_ex':
/experiment/source/ext/standard/string.c:3664:26: warning: assignment discards 'const' qualifier from pointer target type [enabled by default]
     for (p = new_str; (r = php_memnstr(p, needle, needle_len, end)); p = r + needle_len) {
                          ^
/experiment/source/ext/standard/string.c:3676:31: warning: assignment discards 'const' qualifier from pointer target type [enabled by default]
     for (p = haystack_dup; (r = php_memnstr(p, needle_dup, needle_len, end)); p = r + needle_len) {
                               ^
/experiment/source/ext/standard/string.c:3709:15: warning: assignment discards 'const' qualifier from pointer target type [enabled by default]
     while ((o = php_memnstr(o, n, needle_len, endp))) {
               ^
/experiment/source/ext/standard/string.c:3735:27: warning: assignment discards 'const' qualifier from pointer target type [enabled by default]
     for (p = haystack; (r = php_memnstr(p, needle, needle_len, end)); p = r + needle_len) {
                           ^
/experiment/source/ext/standard/string.c:3752:31: warning: assignment discards 'const' qualifier from pointer target type [enabled by default]
     for (p = haystack_dup; (r = php_memnstr(p, needle_dup, needle_len, end)); p = r + needle_len) {
                               ^
/experiment/source/ext/standard/string.c: In function 'zif_substr_count':
/experiment/source/ext/standard/string.c:5189:13: warning: assignment discards 'const' qualifier from pointer target type [enabled by default]
   while ((p = php_memnstr(p, needle, needle_len, endp))) {
             ^
/experiment/source/ext/standard/var.c: In function 'php_var_export_ex':
/experiment/source/ext/standard/var.c:439:3: warning: conversion lacks type at end of format [-Wformat=]
   tmp_len = spprintf(&tmp_str, 0,"%.*H", (int) EG(precision), Z_DVAL_PP(struc));
   ^
/experiment/source/ext/standard/var.c:439:3: warning: too many arguments for format [-Wformat-extra-args]
ext/standard/url_scanner_ex.re: In function 'handle_form':
ext/standard/url_scanner_ex.re:217:20: warning: initialization discards 'const' qualifier from pointer target type [enabled by default]
      char *e, *p = zend_memnstr(ctx->val.c, "://", sizeof("://") - 1, ctx->val.c + ctx->val.len);
                    ^
/experiment/source/ext/standard/php_fopen_wrapper.c: In function 'php_stream_url_wrap_php':
/experiment/source/ext/standard/php_fopen_wrapper.c:281:9: warning: assignment discards 'const' qualifier from pointer target type [enabled by default]
   start = &path[3];
         ^
/experiment/source/main/getopt.c: In function 'php_getopt':
/experiment/source/main/getopt.c:95:12: warning: assignment discards 'const' qualifier from pointer target type [enabled by default]
   if ((pos = php_memnstr(&argv[*optind][arg_start], "=", 1, argv[*optind]+arg_end)) != NULL) {
            ^
In file included from Zend/zend_language_scanner.l:50:0:
Zend/zend_language_scanner.l: In function 'lex_scan':
/experiment/source/TSRM/tsrm_virtual_cwd.h:290:39: warning: ignoring return value of 'getcwd', declared with attribute warn_unused_result [-Wunused-result]
 #define VCWD_GETCWD(buff, size) getcwd(buff, size)
                                       ^
Zend/zend_language_scanner.l:1710:3: note: in expansion of macro 'VCWD_GETCWD'
   VCWD_GETCWD(dirname, MAXPATHLEN);
   ^
/experiment/source/Zend/zend_ini_parser.c: In function 'ini_parse':
/experiment/source/Zend/zend_ini_parser.c:2068:9: warning: passing argument 1 of 'ini_error' discards 'const' qualifier from pointer target type [enabled by default]
         yyerror (yymsgp);
         ^
/experiment/source/Zend/zend_ini_parser.y:163:13: note: expected 'char *' but argument is of type 'const char *'
 static void ini_error(char *msg)
             ^
Zend/zend_ini_scanner.l:34:0: warning: "YYDEBUG" redefined [enabled by default]
 # define YYDEBUG(s, c)
 ^
In file included from Zend/zend_ini_scanner.l:28:0:
Zend/zend_ini_parser.h:37:0: note: this is the location of the previous definition
 # define YYDEBUG 0
 ^
/experiment/source/Zend/zend_compile.c: In function 'zend_traits_copy_functions':
/experiment/source/Zend/zend_compile.c:4020:9: warning: assignment discards 'const' qualifier from pointer target type [enabled by default]
  lcname = hash_key->arKey;
         ^
PEAR package PHP_Archive not installed: generated phar will require PHP's phar extension be enabled.
unknown shorthand flag: 'f' in -f
See 'docker volume --help'.

Usage:	docker volume COMMAND

Manage Docker volumes

Options:
      --help   Print usage

Commands:
  create      Create a volume
  inspect     Display detailed information on one or more volumes
  ls          List volumes
  rm          Remove one or more volumes

Run 'docker volume COMMAND --help' for more information on a command.

