{
  "problem": {
    "name": "sir-sed-v2-AG_19",
    "multi_file": true,
    "program": "source/manifest.txt",
    "executable_name": "sed",
    "positive_tests": 117,
    "negative_tests": 243,
    "compiler": {
      "executable": "sed",
      "command": "./compile.sh __EXE_NAME__ &> /dev/null"
    },
    "fix": {
      "types": ["append", "add_function_call"],
      "line": 1036,
      "statements": [613]
    }
  },
  "test_command": "./test.sh __EXE_NAME__ __TEST_NAME__ &> /dev/null"
}
